<?xml version="1.0" standalone="no"?>
<!DOCTYPE svg PUBLIC "-//W3C//DTD SVG 1.1//EN" "http://www.w3.org/Graphics/SVG/1.1/DTD/svg11.dtd" >
<svg xmlns="http://www.w3.org/2000/svg">
<metadata>Generated by IcoMoon</metadata>
<defs>
<font id="icomoon" horiz-adv-x="1024">
<font-face units-per-em="1024" ascent="960" descent="-64" />
<missing-glyph horiz-adv-x="1024" />
<glyph unicode="&#x20;" horiz-adv-x="512" d="" />
<glyph unicode="&#xe900;" glyph-name="bitbucket" d="M33.195 908.331c-18.091 0.256-32.939-14.251-33.195-32.341 0-1.92 0.085-3.84 0.427-5.717l139.221-845.269c3.584-21.291 21.973-36.992 43.605-37.205h667.947c16.299-0.171 30.208 11.563 32.853 27.563l139.52 854.613c2.901 17.835-9.216 34.688-27.093 37.589-1.92 0.341-3.797 0.469-5.675 0.427zM619.52 297.472h-213.248l-57.685 301.397h322.603z" />
<glyph unicode="&#xe901;" glyph-name="bitbucket-square" horiz-adv-x="878" d="M484.571 453.714c0 32.571-40 54.857-67.429 38.286-32.571-15.429-32.571-68 0.571-81.714 29.714-17.714 71.429 9.143 66.857 43.429zM530.286 462.857c6.286-50.286-33.143-99.429-83.429-104s-97.714 36.571-100 87.429c-1.714 37.714 21.714 74.286 56 89.714 53.714 24 120-14.857 127.429-73.143zM628.571 686.286c-25.143-25.714-63.429-29.143-97.143-33.143-61.143-8-123.429-7.429-185.143 0-33.714 4.571-70.857 8.571-97.143 33.143 16 22.857 44.571 27.429 70.286 31.429 77.143 13.714 156 13.143 233.143 0.571 27.429-4 58.286-8.571 76-32zM652.571 260c0 13.714 14.286 37.143-5.143 42.857-122.857-81.143-294.286-81.143-417.714 0l-6.857-3.429-2.857-6.857c6.857-40 13.143-80.571 23.429-120 23.429-40.571 73.714-54.286 116.571-61.714 81.143-14.857 170.857-10.286 244.571 30.286 42.857 24 36 78.286 48 118.857zM726.857 656c2.286 13.714 5.143 30.286-4.571 42.857-21.714 27.429-56 40.571-88.571 50.286-90.286 26.286-185.714 29.714-278.286 20.571-44-4-88-11.429-129.143-26.286-30.857-12-72.571-28-77.714-64.571 10.286-85.714 26.857-169.714 41.143-254.857 4.571-24 4.571-52.571 26.286-69.714 46.286-35.429 105.143-50.857 162.286-57.143 84.571-9.143 174.286-2.857 251.429 36 21.714 11.429 46.857 26.286 51.429 52.571 16 89.714 31.429 179.429 45.714 270.286zM877.714 713.143v-548.571c0-90.857-73.714-164.571-164.571-164.571h-548.571c-90.857 0-164.571 73.714-164.571 164.571v548.571c0 90.857 73.714 164.571 164.571 164.571h548.571c90.857 0 164.571-73.714 164.571-164.571z" />
<glyph unicode="&#xe902;" glyph-name="bitbucket1" horiz-adv-x="809" d="M465.714 460c6.286-48-52-85.714-92.571-61.143-45.714 20-45.714 92.571-1.143 113.143 38.286 23.429 93.714-7.429 93.714-52zM529.143 472c-10.286 81.143-102.286 134.857-177.143 101.143-47.429-21.143-79.429-71.429-77.143-124.571 2.857-69.714 69.143-126.857 138.857-120.571s124 74.286 115.429 144zM665.714 781.714c-25.143 33.143-68 38.857-105.714 45.143-106.857 17.143-216.571 17.714-323.429-1.143-35.429-5.714-75.429-12-97.714-44 36.571-34.286 88.571-39.429 135.429-45.143 84.571-10.857 171.429-11.429 256-0.571 47.429 5.714 100 10.286 135.429 45.714zM698.286 190.286c-16-56-6.857-131.429-66.286-164-102.286-56.571-226.286-62.857-338.857-42.857-59.429 10.857-129.143 29.714-161.714 85.714-14.286 54.857-23.429 110.857-32.571 166.857l3.429 9.143 10.286 5.143c170.286-112.571 408.571-112.571 579.429 0 26.857-8 6.857-40.571 6.286-60zM801.714 739.428c-19.429-125.143-41.714-249.714-63.429-374.286-6.286-36.571-41.714-57.143-71.429-72.571-106.857-53.714-231.429-62.857-348.571-50.286-79.429 8.571-160.571 29.714-225.143 79.429-30.286 23.429-30.286 63.429-36 97.143-20 117.143-42.857 234.286-57.143 352.571 6.857 51.429 64.571 73.714 107.429 89.714 57.143 21.143 118.286 30.857 178.857 36.571 129.143 12.571 261.143 8 386.286-28.571 44.571-13.143 92.571-31.429 122.857-69.714 13.714-17.714 9.143-40 6.286-60z" />
<glyph unicode="&#xe945;" glyph-name="envelop" d="M928 832h-832c-52.8 0-96-43.2-96-96v-640c0-52.8 43.2-96 96-96h832c52.8 0 96 43.2 96 96v640c0 52.8-43.2 96-96 96zM398.74 409.628l-270.74-210.892v501.642l270.74-290.75zM176.38 704h671.24l-335.62-252-335.62 252zM409.288 398.302l102.712-110.302 102.71 110.302 210.554-270.302h-626.528l210.552 270.302zM625.26 409.628l270.74 290.75v-501.642l-270.74 210.892z" />
<glyph unicode="&#xeac9;" glyph-name="linkedin" d="M928 960h-832c-52.8 0-96-43.2-96-96v-832c0-52.8 43.2-96 96-96h832c52.8 0 96 43.2 96 96v832c0 52.8-43.2 96-96 96zM384 128h-128v448h128v-448zM320 640c-35.4 0-64 28.6-64 64s28.6 64 64 64c35.4 0 64-28.6 64-64s-28.6-64-64-64zM832 128h-128v256c0 35.4-28.6 64-64 64s-64-28.6-64-64v-256h-128v448h128v-79.4c26.4 36.2 66.8 79.4 112 79.4 79.6 0 144-71.6 144-160v-288z" />
<glyph unicode="&#xeaca;" glyph-name="linkedin2" d="M384 576h177.106v-90.782h2.532c24.64 44.194 84.958 90.782 174.842 90.782 186.946 0 221.52-116.376 221.52-267.734v-308.266h-184.61v273.278c0 65.184-1.334 149.026-96.028 149.026-96.148 0-110.82-70.986-110.82-144.292v-278.012h-184.542v576zM64 576h192v-576h-192v576zM256 736c0-53.019-42.981-96-96-96s-96 42.981-96 96c0 53.019 42.981 96 96 96s96-42.981 96-96z" />
<glyph unicode="&#xead3;" glyph-name="xing" d="M928 960h-832c-52.8 0-96-43.2-96-96v-832c0-52.8 43.2-96 96-96h832c52.8 0 96 43.2 96 96v832c0 52.8-43.2 96-96 96zM312.6 294h-110.6c-6.6 0-11.6 3-14.4 7.6-3 4.8-3 10.8 0 17l117.6 207.6c0.2 0.2 0.2 0.4 0 0.6l-74.8 129.6c-3 6.2-3.6 12.2-0.6 17 2.8 4.6 8.4 7 15.2 7h110.8c17 0 25.4-11 30.8-20.8 0 0 75.6-132 76.2-132.8-4.4-8-119.6-211.4-119.6-211.4-6-10.4-14-21.4-30.6-21.4zM836.4 807.8l-245.2-433.6c-0.2-0.2-0.2-0.6 0-0.8l156.2-285.2c3-6.2 3.2-12.4 0.2-17.2-2.8-4.6-8-7-14.8-7h-110.6c-17 0-25.4 11.2-31 21 0 0-157 288-157.4 288.8 7.8 13.8 246.4 437 246.4 437 6 10.6 13.2 21 29.6 21h112.2c6.6 0 12-2.6 14.8-7 2.8-4.6 2.8-10.8-0.4-17z" />
<glyph unicode="&#xead4;" glyph-name="xing2" d="M155.6 757.8c-8.8 0-16.4-3.2-20.2-9.2-3.8-6.4-3.2-14.4 0.8-22.6l99.8-172.8c0.2-0.4 0.2-0.6 0-0.8l-156.8-277.2c-4-8.2-3.8-16.4 0-22.6 3.8-6 10.4-10 19.2-10h147.6c22 0 32.8 15 40.2 28.6 0 0 153.4 271.4 159.4 282-0.6 1-101.6 177-101.6 177-7.4 13-18.4 27.6-41.2 27.6h-147.2zM776 960c-22 0-31.6-13.8-39.6-28.2 0 0-318.2-564.2-328.6-582.8 0.6-1 209.8-385 209.8-385 7.4-13 18.6-28.2 41.2-28.2h147.6c8.8 0 15.8 3.4 19.6 9.4 4 6.4 3.8 14.6-0.4 22.8l-208 380.6c-0.2 0.4-0.2 0.6 0 1l327 578.2c4 8.2 4.2 16.4 0.4 22.8-3.8 6-10.8 9.4-19.6 9.4h-149.4z" />
<glyph unicode="&#xeae7;" glyph-name="git" d="M1004.692 493.606l-447.096 447.080c-25.738 25.754-67.496 25.754-93.268 0l-103.882-103.876 78.17-78.17c12.532 5.996 26.564 9.36 41.384 9.36 53.020 0 96-42.98 96-96 0-14.82-3.364-28.854-9.362-41.386l127.976-127.974c12.532 5.996 26.566 9.36 41.386 9.36 53.020 0 96-42.98 96-96s-42.98-96-96-96-96 42.98-96 96c0 14.82 3.364 28.854 9.362 41.386l-127.976 127.974c-3.042-1.456-6.176-2.742-9.384-3.876v-266.968c37.282-13.182 64-48.718 64-90.516 0-53.020-42.98-96-96-96s-96 42.98-96 96c0 41.796 26.718 77.334 64 90.516v266.968c-37.282 13.18-64 48.72-64 90.516 0 14.82 3.364 28.852 9.36 41.384l-78.17 78.17-295.892-295.876c-25.75-25.776-25.75-67.534 0-93.288l447.12-447.080c25.738-25.75 67.484-25.75 93.268 0l445.006 445.006c25.758 25.762 25.758 67.54-0.002 93.29z" />
</font></defs></svg>